[
	
	{

		"image_1" : "//img.alicdn.com/tps/i4/TB1SuYpKXXXXXbjXpXXL2TJPFXX-480-550.jpg",
		"image_2" : "https://img.alicdn.com/tps/TB1jW.xJFXXXXbNXFXXXXXXXXXX-180-195.png",
		"image_3" : "https://img.alicdn.com/tps/TB16X3MJFXXXXXeXpXXXXXXXXXX-180-195.png",
		"image_4" : "//img.alicdn.com/tps/i2/TB1SEAHJFXXXXa6XpXXFBIMYXXX-180-195.jpg",
		"image_5" : "https://img.alicdn.com/tps/TB1O3wlJFXXXXcOXVXXXXXXXXXX-180-195.png",
		"image_6" : "https://img.alicdn.com/tps/TB1sqsBJFXXXXX_XFXXXXXXXXXX-180-195.png",
		"image_7" : "https://img.alicdn.com/tps/TB17y_aJpXXXXaeXFXXXXXXXXXX-180-195.jpg"
	}

]