[
	
	{
		"image_1" : "//img.alicdn.com/tps/i2/TB1AyrqKXXXXXbuXpXXL2TJPFXX-480-550.jpg",
		"image_2" : "//img.alicdn.com/tps/i4/TB1ZYB1JFXXXXaPXpXXFBIMYXXX-180-195.jpg",
		"image_3" : "//img.alicdn.com/tps/i4/TB1EJD0KpXXXXaqXFXXFBIMYXXX-180-195.jpg",
		"image_4" : "//img.alicdn.com/tps/i4/TB1X.YIJVXXXXaKXpXXFBIMYXXX-180-195.jpg",
		"image_5" : "//img.alicdn.com/tps/i3/TB1dOwcKpXXXXaMXXXXFBIMYXXX-180-195.jpg",
		"image_6" : "//img.alicdn.com/tps/i2/TB1nc86HpXXXXX3XFXXiNJ7FVXX-150-70.jpg",
		"image_7" : "//img.alicdn.com/tps/i4/TB13pqXHpXXXXaNXXXXiNJ7FVXX-150-70.jpg",
		"image_8" : "//img.alicdn.com/tps/i1/TB1Wlp6HpXXXXXRXFXXiNJ7FVXX-150-70.jpg",
		"image_9" : "//img.alicdn.com/tps/i1/TB1.2F9HpXXXXaJXpXXiNJ7FVXX-150-70.jpg",
		"image_10" : "//img.alicdn.com/tps/i3/TB1sHR5HpXXXXcYXFXXiNJ7FVXX-150-70.jpg"
	}

]