{
    "relationships": [
        {
            "relationshipId": 1,
            "relationshipName": "product",
            "otherEntityName": "product",
            "relationshipType": "one-to-one",
            "otherEntityField": "id",
            "ownerSide": true,
            "otherEntityRelationshipName": "deals"
        }
    ],
    "fields": [
        {
            "fieldId": 1,
            "fieldName": "dealType",
            "fieldType": "DealType",
            "fieldValues": "currentweek, nextweek, pastweek, superdeal, hours24, featuredbrands, featured, haggell",
            "fieldValidateRules": [
                "required"
            ]
        },
        {
            "fieldId": 2,
            "fieldName": "weight",
            "fieldType": "Integer"
        }
    ],
    "changelogDate": "20151207071202",
    "dto": "no",
    "pagination": "pager"
}