{
    "relationships": [],
    "fields": [
        {
            "fieldId": 1,
            "fieldName": "imageType",
            "fieldType": "ImageType",
            "fieldValues": " thumbnail, smallpic, largepic, hover, gallery",
            "fieldValidateRules": [
                "required"
            ]
        },
        {
            "fieldId": 2,
            "fieldName": "imagePath",
            "fieldType": "String",
            "fieldValidateRules": [
                "required"
            ]
        },
        {
            "fieldId": 3,
            "fieldName": "imageCategory",
            "fieldType": "ImageCategory",
            "fieldValues": "product, seller, shopper, category, gallery",
            "fieldValidateRules": [
                "required"
            ]
        },
        {
            "fieldId": 4,
            "fieldName": "categoryId",
            "fieldType": "Long",
            "fieldValidateRules": [
                "required"
            ]
        }
    ],
    "changelogDate": "20151011082118",
    "dto": "no",
    "pagination": "pagination"
}
