{
    "relationships": [
        {
            "relationshipId": 1,
            "relationshipName": "review",
            "otherEntityName": "review",
            "relationshipType": "one-to-many",
            "otherEntityRelationshipName": "product"
        },
        {
            "relationshipId": 2,
            "relationshipName": "category",
            "otherEntityName": "category",
            "relationshipType": "many-to-one",
            "otherEntityField": "id"
        },

        {
            "relationshipId": 3,
            "relationshipName": "pricing",
            "otherEntityName": "pricing",
            "relationshipType": "one-to-one",
            "otherEntityField": "id",
            "ownerSide": true,
            "otherEntityRelationshipName": "product"
        },
        {
            "relationshipId": 4,
            "relationshipName": "seller",
            "otherEntityName": "seller",
            "relationshipType": "many-to-one",
            "otherEntityField": "id"
        },
        {
            "relationshipId": 5,
            "relationshipName": "images",
            "otherEntityName": "images",
            "relationshipType": "one-to-many"

        }

    ],
    "fields": [
        {
            "fieldId": 1,
            "fieldName": "title",
            "fieldType": "String",
            "fieldValidateRules": [
                "required",
                "minlength",
                "maxlength"
            ],
            "fieldValidateRulesMinlength": "5",
            "fieldValidateRulesMaxlength": "100"
        },
        {
            "fieldId": 2,
            "fieldName": "synopsis",
            "fieldType": "String",
            "fieldValidateRules": [
                "required",
                "minlength",
                "maxlength"
            ],
            "fieldValidateRulesMinlength": "50",
            "fieldValidateRulesMaxlength": "10000"
        },
        {
            "fieldId": 3,
            "fieldName": "productDetails",
            "fieldType": "String",
            "fieldValidateRules": [
                "required",
                "minlength",
                "maxlength"
            ],
            "fieldValidateRulesMinlength": "50",
            "fieldValidateRulesMaxlength": "25000"
        },
        {
            "fieldId": 4,
            "fieldName": "currentRating",
            "fieldType": "Float"
        }
    ,
        {
            "fieldId": 5,
            "fieldName": "karmaPoints",
            "fieldType": "Integer"
        }
    ],
    "changelogDate": "20151011092225",
    "dto": "no",
    "pagination": "pagination"
}
