{
    "relationships": [
        {
            "relationshipId": 1,
            "relationshipName": "product",
            "otherEntityName": "product",
            "relationshipType": "one-to-many",
            "ownerSide": true,
            "otherEntityRelationshipName": "seller"
        },
        {
            "relationshipId": 2,
            "relationshipName": "address",
            "otherEntityName": "address",
            "relationshipType": "many-to-many",
            "ownerSide": true
        },
        {
            "relationshipId": 3,
            "relationshipName": "contactInfo",
            "otherEntityName": "contactInfo",
            "relationshipType": "one-to-one",
            "otherEntityField": "id",
            "ownerSide": true,
            "otherEntityRelationshipName": "seller"
        }
    ],
    "fields": [
        {
            "fieldId": 1,
            "fieldName": "fullName",
            "fieldType": "String",
            "fieldValidateRules": [
                "required",
                "minlength"
            ],
            "fieldValidateRulesMinlength": "3"
        },
        {
            "fieldId": 2,
            "fieldName": "emailAddress",
            "fieldType": "String",
            "fieldValidateRules": [
                "required",
                "minlength"
            ],
            "fieldValidateRulesMinlength": "5"
        },
        {
            "fieldId": 3,
            "fieldName": "registerDate",
            "fieldType": "DateTime",
            "fieldValidateRules": [
                "required"
            ]
        },
        {
            "fieldId": 4,
            "fieldName": "isActive",
            "fieldType": "Boolean"
        },
        {
            "fieldId": 5,
            "fieldName": "sellerInfo",
            "fieldType": "String"
        } ,
        {
            "fieldId": 6,
            "fieldName": "karmaPoints",
            "fieldType": "Integer"
        }
    ],
    "changelogDate": "20151011085256",
    "dto": "no",
    "pagination": "pagination"
}
